<svg width="30" height="30" viewBox="0 0 30 30" fill="none" xmlns="http://www.w3.org/2000/svg">
<path d="M7.5 16.25C4.05 16.25 1.25 19.0375 1.25 22.5C1.25 25.9625 4.05 28.75 7.5 28.75C10.95 28.75 13.75 25.95 13.75 22.5C13.75 19.05 10.9625 16.25 7.5 16.25ZM4.95 19.95H7.5C7.975 19.95 8.35 20.3375 8.35 20.8C8.35 21.2625 7.975 21.65 7.5 21.65H4.95C4.475 21.65 4.1 21.2625 4.1 20.8C4.1 20.3375 4.475 19.95 4.95 19.95ZM10.05 25.05H4.95C4.475 25.05 4.1 24.6625 4.1 24.2C4.1 23.7375 4.4875 23.35 4.95 23.35H10.0625C10.5375 23.35 10.9125 23.7375 10.9125 24.2C10.9125 24.6625 10.525 25.05 10.05 25.05Z" fill="white"/>
<path d="M21.25 3.75H8.75C5 3.75 2.5 5.625 2.5 10V13.925C2.5 14.8375 3.4375 15.4125 4.275 15.05C5.65 14.45 7.2125 14.225 8.85 14.4875C12.125 15.025 14.8 17.6125 15.4625 20.8625C15.65 21.8125 15.675 22.7375 15.55 23.625C15.45 24.3625 16.05 25.0125 16.7875 25.0125H21.25C25 25.0125 27.5 23.1375 27.5 18.7625V10C27.5 5.625 25 3.75 21.25 3.75ZM21.8375 10.7375L17.925 13.8625C17.1 14.525 16.05 14.85 15 14.85C13.95 14.85 12.8875 14.525 12.075 13.8625L8.1625 10.7375C7.7625 10.4125 7.7 9.8125 8.0125 9.4125C8.3375 9.0125 8.925 8.9375 9.325 9.2625L13.2375 12.3875C14.1875 13.15 15.8 13.15 16.75 12.3875L20.6625 9.2625C21.0625 8.9375 21.6625 9 21.975 9.4125C22.3 9.8125 22.2375 10.4125 21.8375 10.7375Z" fill="white"/>
</svg>
